…
``` r
ames_validation <- ames_validation%>%
        mutate(valuation =ifelse(residual < 0, "Over-Valued", "Under-Valued"))

idx <- which(predict.df$price < predict.df$lwr | predict.df$price > predict.df$upr)

ames_validation[idx, c("PID", "price", "area", "Lot.Area", "Neighborhood", "predicted.price", "residual", "valuation") ]  
```

    ## # A tibble: 41 x 8
    ##        PID  price  area Lot.Area Neighborhood predicted.price residual valuation
    ##      <int>  <int> <int>    <int> <fct>                  <dbl>    <dbl> <chr>    
    ##  1  9.10e8  55000   796     3636 IDOTRR                69373.  -14373. Over-Val…
    ##  2  9.08e8 130000  1709     2522 Edwards              163629.  -33629. Over-Val…
    ##  3  5.35e8  93500  1040     8544 NAmes                 76683.   16817. Under-Va…
    ##  4  9.05e8 216000  1325    17541 Edwards              136413.   79587. Under-Va…
    ##  5  9.09e8 170000  1680    17871 Crawfor              212540.  -42540. Over-Val…
    ##  6  9.02e8  87000  1774     9600 OldTown              105450.  -18450. Over-Val…
    ##  7  9.03e8  97500  1864     5852 OldTown              123389.  -25889. Over-Val…
    ##  8  9.03e8 205000  1548     7264 BrkSide              168256.   36744. Under-Va…
    ##  9  9.03e8  84500   754     6780 IDOTRR               109375.  -24875. Over-Val…
    ## 10  5.35e8 163000  1040    11500 NAmes                128461.   34539. Under-Va…
    ## # … with 31 more rows
…
